\relax 
\providecommand\hyper@newdestlabel[2]{}
\providecommand\HyperFirstAtBeginDocument{\AtBeginDocument}
\HyperFirstAtBeginDocument{\ifx\hyper@anchor\@undefined
\global\let\oldcontentsline\contentsline
\gdef\contentsline#1#2#3#4{\oldcontentsline{#1}{#2}{#3}}
\global\let\oldnewlabel\newlabel
\gdef\newlabel#1#2{\newlabelxx{#1}#2}
\gdef\newlabelxx#1#2#3#4#5#6{\oldnewlabel{#1}{{#2}{#3}}}
\AtEndDocument{\ifx\hyper@anchor\@undefined
\let\contentsline\oldcontentsline
\let\newlabel\oldnewlabel
\fi}
\fi}
\global\let\hyper@last\relax 
\gdef\HyperFirstAtBeginDocument#1{#1}
\providecommand\HyField@AuxAddToFields[1]{}
\providecommand\HyField@AuxAddToCoFields[2]{}
\@writefile{toc}{\contentsline {section}{\numberline {1}Introduction}{3}{section.1}}
\@writefile{toc}{\contentsline {section}{\numberline {2}Requirements}{3}{section.2}}
\@writefile{toc}{\contentsline {subsection}{\numberline {2.1}Client side}{3}{subsection.2.1}}
\@writefile{toc}{\contentsline {subsection}{\numberline {2.2}Server side}{3}{subsection.2.2}}
\@writefile{toc}{\contentsline {section}{\numberline {3}Glossary}{3}{section.3}}
\@writefile{toc}{\contentsline {subsection}{\numberline {3.1}Crowd Sourcing}{3}{subsection.3.1}}
\@writefile{toc}{\contentsline {subsection}{\numberline {3.2}Task}{3}{subsection.3.2}}
\@writefile{toc}{\contentsline {subsection}{\numberline {3.3}Owner}{3}{subsection.3.3}}
\@writefile{toc}{\contentsline {subsection}{\numberline {3.4}User information}{4}{subsection.3.4}}
\@writefile{toc}{\contentsline {section}{\numberline {4}Database Model}{4}{section.4}}
\@writefile{lof}{\contentsline {figure}{\numberline {1}{\ignorespaces Database model in ORM}}{4}{figure.1}}
\@writefile{toc}{\contentsline {subsection}{\numberline {4.1}\emph  {Account}}{4}{subsection.4.1}}
\@writefile{toc}{\contentsline {subsection}{\numberline {4.2}\emph  {Task}}{5}{subsection.4.2}}
